{
	"info": {
		"_postman_id": "3d824198-9c51-483f-98ac-7193c77696d2",
		"name": "chatbot-api",
		"schema": "https://schema.getpostman.com/json/collection/v2.0.0/collection.json"
	},
	"item": [
		{
			"name": "Usuario",
			"item": [
				{
					"name": "Registro de usuario",
					"request": {
						"method": "POST",
						"header": [],
						"body": {
							"mode": "raw",
							"raw": "{\r\n    \"name\": \"Jose\",\r\n    \"lastName\": \"Duran Zarate\",\r\n    \"dni\": \"75089129\",\r\n    \"gender\": \"M\",\r\n    \"age\": 21,\r\n    \"districtId\": \"150142\"\r\n}",
							"options": {
								"raw": {
									"language": "json"
								}
							}
						},
						"url": "http://localhost:4001/user/"
					},
					"response": []
				},
				{
					"name": "Obtener usuario",
					"protocolProfileBehavior": {
						"disableBodyPruning": true
					},
					"request": {
						"auth": {
							"type": "bearer",
							"bearer": {
								"token": "eyJ0eXAiOiJKV1QiLCJhbGciOiJIUzI1NiJ9.eyJpZCI6MSwibmFtZSI6Ikpvc2UgTHVpcyIsImdlbmRlciI6Ik0iLCJhZ2UiOjIxLCJpYXQiOjE1OTYzMTA5MDB9.fk-SlmlputeIvfgMcZqrrU-sEnp7fF7MCclhjEFwfJE"
							}
						},
						"method": "GET",
						"header": [],
						"body": {
							"mode": "raw",
							"raw": "",
							"options": {
								"raw": {
									"language": "json"
								}
							}
						},
						"url": "http://localhost:4001/user/75089125"
					},
					"response": []
				},
				{
					"name": "Editar usuario",
					"request": {
						"auth": {
							"type": "bearer",
							"bearer": {
								"token": "eyJ0eXAiOiJKV1QiLCJhbGciOiJIUzI1NiJ9.eyJpZCI6MSwibmFtZSI6Ikpvc2UgTHVpcyIsImdlbmRlciI6Ik0iLCJhZ2UiOjIxLCJpYXQiOjE1OTYzMTA5MDB9.fk-SlmlputeIvfgMcZqrrU-sEnp7fF7MCclhjEFwfJE"
							}
						},
						"method": "PUT",
						"header": [],
						"body": {
							"mode": "raw",
							"raw": "{\r\n   \"age\": 22,\r\n   \"gender\": \"F\",\r\n   \"districtId\": \"150142\"\r\n}",
							"options": {
								"raw": {
									"language": "json"
								}
							}
						},
						"url": "http://localhost:4001/user/75089125"
					},
					"response": []
				}
			],
			"protocolProfileBehavior": {}
		},
		{
			"name": "Autenticación",
			"item": [
				{
					"name": "Login de usuario",
					"request": {
						"method": "POST",
						"header": [],
						"body": {
							"mode": "raw",
							"raw": "{\r\n    \"fullName\": \"Jose Luis\",\r\n    \"firstLastName\": \"Duran\",\r\n    \"secondLastName\": \"Zarate\",\r\n    \"dni\": 75089125\r\n}",
							"options": {
								"raw": {
									"language": "json"
								}
							}
						},
						"url": "http://localhost:4001/auth/"
					},
					"response": []
				},
				{
					"name": "Obtener departamentos",
					"protocolProfileBehavior": {
						"disableBodyPruning": true
					},
					"request": {
						"method": "GET",
						"header": [],
						"body": {
							"mode": "raw",
							"raw": "",
							"options": {
								"raw": {
									"language": "json"
								}
							}
						},
						"url": "http://localhost:4001/auth/department"
					},
					"response": []
				},
				{
					"name": "Obtener provincias",
					"protocolProfileBehavior": {
						"disableBodyPruning": true
					},
					"request": {
						"method": "GET",
						"header": [],
						"body": {
							"mode": "raw",
							"raw": "",
							"options": {
								"raw": {
									"language": "json"
								}
							}
						},
						"url": "http://localhost:4001/auth/province/150000"
					},
					"response": []
				},
				{
					"name": "Obtener distritos",
					"protocolProfileBehavior": {
						"disableBodyPruning": true
					},
					"request": {
						"method": "GET",
						"header": [],
						"body": {
							"mode": "raw",
							"raw": "",
							"options": {
								"raw": {
									"language": "json"
								}
							}
						},
						"url": "http://localhost:4001/auth/district/150100"
					},
					"response": []
				}
			],
			"protocolProfileBehavior": {}
		},
		{
			"name": "Mensajería",
			"item": [
				{
					"name": "Enviar mensajes",
					"request": {
						"auth": {
							"type": "bearer",
							"bearer": {
								"token": "eyJ0eXAiOiJKV1QiLCJhbGciOiJIUzI1NiJ9.eyJpZCI6MSwibmFtZSI6Ikpvc2UgTHVpcyIsImdlbmRlciI6Ik0iLCJhZ2UiOjIxLCJpYXQiOjE1OTYzMTA5MDB9.fk-SlmlputeIvfgMcZqrrU-sEnp7fF7MCclhjEFwfJE"
							}
						},
						"method": "POST",
						"header": [],
						"body": {
							"mode": "raw",
							"raw": "{\r\n    \"messageInput\": \"como se si tengo covid\"\r\n}",
							"options": {
								"raw": {
									"language": "json"
								}
							}
						},
						"url": "http://localhost:4001/message"
					},
					"response": []
				}
			],
			"protocolProfileBehavior": {}
		},
		{
			"name": "Triaje",
			"item": [
				{
					"name": "Obtener resulados de triaje",
					"protocolProfileBehavior": {
						"disableBodyPruning": true
					},
					"request": {
						"auth": {
							"type": "bearer",
							"bearer": {
								"token": "eyJ0eXAiOiJKV1QiLCJhbGciOiJIUzI1NiJ9.eyJpZCI6MSwibmFtZSI6Ikpvc2UgTHVpcyIsImdlbmRlciI6Ik0iLCJhZ2UiOjIxLCJpYXQiOjE1OTYzMTA5MDB9.fk-SlmlputeIvfgMcZqrrU-sEnp7fF7MCclhjEFwfJE"
							}
						},
						"method": "GET",
						"header": [],
						"body": {
							"mode": "raw",
							"raw": "",
							"options": {
								"raw": {
									"language": "json"
								}
							}
						},
						"url": "http://localhost:4001/survey/1"
					},
					"response": []
				},
				{
					"name": "Registrar resultados de triaje",
					"request": {
						"auth": {
							"type": "bearer",
							"bearer": {
								"token": "eyJ0eXAiOiJKV1QiLCJhbGciOiJIUzI1NiJ9.eyJpZCI6MSwibmFtZSI6Ikpvc2UgTHVpcyIsImdlbmRlciI6Ik0iLCJhZ2UiOjIxLCJpYXQiOjE1OTYzMTA5MDB9.fk-SlmlputeIvfgMcZqrrU-sEnp7fF7MCclhjEFwfJE"
							}
						},
						"method": "POST",
						"header": [],
						"body": {
							"mode": "raw",
							"raw": "{\r\n    \"userId\": 1,\r\n    \"content\": \"gaaaaa\"\r\n}",
							"options": {
								"raw": {
									"language": "json"
								}
							}
						},
						"url": "http://localhost:4001/survey"
					},
					"response": []
				}
			],
			"protocolProfileBehavior": {}
		}
	],
	"protocolProfileBehavior": {}
}